Analise de Dados para as Ciencias Sociais: Abrindo e Manipulando Dados
…
Mais frequentemente, não importa a posição vertical da observação no conjunto de dados, para limitar a nossa análise o que importa é o valor de uma variável. Por exemplo, podemos querer os dados apenas da Ásia, do século 20, de mulheres, ou de homens acima de 18 anos de idade que moram em São Paulo.

Estes critérios podem ser aplicados usando o verbo filter(). Nos paramêtros de filter, temos que especificar as condições que o R vai avaliar para decidir se vai incluir no banco de dados final. A condição sempre tem que avaliar para verdadeiro ou falso (TRUE ou FALSE) para cada observação, e o R guarda apenas as observações ‘verdadeiros’.

Em nosso banco de dados de voos, vamos selecionar apenas os voos de mês 6 (junho). Como definimos esta condição? Precisamos de três elementos:

Nome de variável - aqui, o mês, month.

Tipo de comparação - aqui, queremos selecionar um mês específico então precisamos de uma igualdade que digitamos em R como ==. Sim, dois iguais juntos! Explicamos embaixo.

Critério - aqui, qual mês? Nos dados, junho está codificado num número, então ‘6’.

flights %>% filter(month==6)

# A tibble: 28,243 x 20
    year month   day dep_time sched_dep_time dep_delay arr_time
   <int> <int> <int>    <int>          <int>     <dbl>    <int>
 1  2013     6     1        2           2359         3      341
 2  2013     6     1      451            500        -9      624
 3  2013     6     1      506            515        -9      715
 4  2013     6     1      534            545       -11      800
 5  2013     6     1      538            545        -7      925
 6  2013     6     1      539            540        -1      832
 7  2013     6     1      546            600       -14      850
 8  2013     6     1      551            600        -9      828
 9  2013     6     1      552            600        -8      647
10  2013     6     1      553            600        -7      700
# ... with 28,233 more rows, and 13 more variables:
#   sched_arr_time <int>, arr_delay <dbl>, carrier <chr>,
#   flight <int>, tailnum <chr>, origin <chr>, dest <chr>,
#   air_time <dbl>, distance <dbl>, hour <dbl>, minute <dbl>,
#   time_hour <dttm>, dep_delay_dobro <dbl>
…
