Untitled
…
airports %>% mutate(Lake=str_detect(name, "Lake"))

## mutate: new variable 'Lake' (logical) with 2 unique values and 0% NA

## # A tibble: 1,458 x 15
##    faa   name             lat    lon   alt    tz dst   País   Região  caracteres
##    <chr> <chr>          <dbl>  <dbl> <dbl> <dbl> <chr> <chr>  <chr>        <int>
##  1 04G   Lansdowne Air~  41.1  -80.6  1044    -5 A     Ameri~ New_Yo~         17
##  2 06A   Moton Field M~  32.5  -85.7   264    -6 A     Ameri~ Chicago         29
##  3 06C   Schaumburg Re~  42.0  -88.1   801    -6 A     Ameri~ Chicago         19
##  4 06N   Randall Airpo~  41.4  -74.4   523    -5 A     Ameri~ New_Yo~         15
##  5 09J   Jekyll Island~  31.1  -81.4    11    -5 A     Ameri~ New_Yo~         21
##  6 0A9   Elizabethton ~  36.4  -82.2  1593    -5 A     Ameri~ New_Yo~         30
##  7 0G6   Williams Coun~  41.5  -84.5   730    -5 A     Ameri~ New_Yo~         23
##  8 0G7   Finger Lakes ~  42.9  -76.8   492    -5 A     Ameri~ New_Yo~         29
##  9 0P2   Shoestring Av~  39.8  -76.6  1000    -5 U     Ameri~ New_Yo~         28
## 10 0S9   Jefferson Cou~  48.1 -123.    108    -8 A     Ameri~ Los_An~         21
## # ... with 1,448 more rows, and 5 more variables: string_field <lgl>,
## #   nome_parcial <list>, nome_parcial_primeiro <chr>, nome_parcial_final <chr>,
## #   Lake <lgl>

airports %>% mutate(name=str_replace(name, "Lake", "Pond"))

## mutate: changed 26 values (2%) of 'name' (0 new NA)

## # A tibble: 1,458 x 14
##    faa   name             lat    lon   alt    tz dst   País   Região  caracteres
##    <chr> <chr>          <dbl>  <dbl> <dbl> <dbl> <chr> <chr>  <chr>        <int>
##  1 04G   Lansdowne Air~  41.1  -80.6  1044    -5 A     Ameri~ New_Yo~         17
##  2 06A   Moton Field M~  32.5  -85.7   264    -6 A     Ameri~ Chicago         29
##  3 06C   Schaumburg Re~  42.0  -88.1   801    -6 A     Ameri~ Chicago         19
##  4 06N   Randall Airpo~  41.4  -74.4   523    -5 A     Ameri~ New_Yo~         15
##  5 09J   Jekyll Island~  31.1  -81.4    11    -5 A     Ameri~ New_Yo~         21
##  6 0A9   Elizabethton ~  36.4  -82.2  1593    -5 A     Ameri~ New_Yo~         30
##  7 0G6   Williams Coun~  41.5  -84.5   730    -5 A     Ameri~ New_Yo~         23
##  8 0G7   Finger Ponds ~  42.9  -76.8   492    -5 A     Ameri~ New_Yo~         29
##  9 0P2   Shoestring Av~  39.8  -76.6  1000    -5 U     Ameri~ New_Yo~         28
## 10 0S9   Jefferson Cou~  48.1 -123.    108    -8 A     Ameri~ Los_An~         21
## # ... with 1,448 more rows, and 4 more variables: string_field <lgl>,
## #   nome_parcial <list>, nome_parcial_primeiro <chr>, nome_parcial_final <chr>
…
texto <- tibble(text="State authorities in the north-western US state of Washington have hit back after President Donald Trump threatened to 'take back'a police-free district controlled by protesters in Seattle. Governor Jay Inslee said Mr Trump should stay out of the state's business, and Seattle's mayor said any invasion of the city would be illegal. Police abandoned a precinct there on Monday after days of clashes. Mr Trump said the area had been overtaken by 'domestic terrorists'. Since police withdrew, demonstrations in the area have been largely peaceful. It has been called Chaz, an abbreviation of Capitol Hill Autonomous Zone. Hundreds of people have been gathering there to demonstrate, hear speeches and attend events.")

palavras <- texto %>% unnest_tokens(palavra, text)

palavras %>% group_by(palavra) %>%
  tally() %>%
  arrange(-n)

## group_by: one grouping variable (palavra)

## tally: now 83 rows and 2 columns, ungrouped

## # A tibble: 83 x 2
##    palavra     n
##    <chr>   <int>
##  1 of          6
##  2 the         5
##  3 been        4
##  4 have        3
##  5 in          3
##  6 police      3
##  7 said        3
##  8 trump       3
##  9 after       2
## 10 and         2
## # ... with 73 more rows
…
airports %>% mutate(Lake=str_detect(name, "Lake"))

## mutate: new variable 'Lake' (logical) with 2 unique values and 0% NA

## # A tibble: 1,458 x 15
##    faa   name             lat    lon   alt    tz dst   País   Região  caracteres
##    <chr> <chr>          <dbl>  <dbl> <dbl> <dbl> <chr> <chr>  <chr>        <int>
##  1 04G   Lansdowne Air~  41.1  -80.6  1044    -5 A     Ameri~ New_Yo~         17
##  2 06A   Moton Field M~  32.5  -85.7   264    -6 A     Ameri~ Chicago         29
##  3 06C   Schaumburg Re~  42.0  -88.1   801    -6 A     Ameri~ Chicago         19
##  4 06N   Randall Airpo~  41.4  -74.4   523    -5 A     Ameri~ New_Yo~         15
##  5 09J   Jekyll Island~  31.1  -81.4    11    -5 A     Ameri~ New_Yo~         21
##  6 0A9   Elizabethton ~  36.4  -82.2  1593    -5 A     Ameri~ New_Yo~         30
##  7 0G6   Williams Coun~  41.5  -84.5   730    -5 A     Ameri~ New_Yo~         23
##  8 0G7   Finger Lakes ~  42.9  -76.8   492    -5 A     Ameri~ New_Yo~         29
##  9 0P2   Shoestring Av~  39.8  -76.6  1000    -5 U     Ameri~ New_Yo~         28
## 10 0S9   Jefferson Cou~  48.1 -123.    108    -8 A     Ameri~ Los_An~         21
## # ... with 1,448 more rows, and 5 more variables: string_field <lgl>,
## #   nome_parcial <list>, nome_parcial_primeiro <chr>, nome_parcial_final <chr>,
## #   Lake <lgl>

airports %>% mutate(name=str_replace(name, "Lake", "Pond"))

## mutate: changed 26 values (2%) of 'name' (0 new NA)

## # A tibble: 1,458 x 14
##    faa   name             lat    lon   alt    tz dst   País   Região  caracteres
##    <chr> <chr>          <dbl>  <dbl> <dbl> <dbl> <chr> <chr>  <chr>        <int>
##  1 04G   Lansdowne Air~  41.1  -80.6  1044    -5 A     Ameri~ New_Yo~         17
##  2 06A   Moton Field M~  32.5  -85.7   264    -6 A     Ameri~ Chicago         29
##  3 06C   Schaumburg Re~  42.0  -88.1   801    -6 A     Ameri~ Chicago         19
##  4 06N   Randall Airpo~  41.4  -74.4   523    -5 A     Ameri~ New_Yo~         15
##  5 09J   Jekyll Island~  31.1  -81.4    11    -5 A     Ameri~ New_Yo~         21
##  6 0A9   Elizabethton ~  36.4  -82.2  1593    -5 A     Ameri~ New_Yo~         30
##  7 0G6   Williams Coun~  41.5  -84.5   730    -5 A     Ameri~ New_Yo~         23
##  8 0G7   Finger Ponds ~  42.9  -76.8   492    -5 A     Ameri~ New_Yo~         29
##  9 0P2   Shoestring Av~  39.8  -76.6  1000    -5 U     Ameri~ New_Yo~         28
## 10 0S9   Jefferson Cou~  48.1 -123.    108    -8 A     Ameri~ Los_An~         21
## # ... with 1,448 more rows, and 4 more variables: string_field <lgl>,
## #   nome_parcial <list>, nome_parcial_primeiro <chr>, nome_parcial_final <chr>

airports %>% mutate(name_split=str_split(name, " ")) %>%
  mutate(name_split_1=map_chr(name_split, 1))

## mutate: new variable 'name_split' (list) with 1,440 unique values and 0% NA

## mutate: new variable 'name_split_1' (character) with 1,158 unique values and 0% NA

## # A tibble: 1,458 x 16
##    faa   name             lat    lon   alt    tz dst   País   Região  caracteres
##    <chr> <chr>          <dbl>  <dbl> <dbl> <dbl> <chr> <chr>  <chr>        <int>
##  1 04G   Lansdowne Air~  41.1  -80.6  1044    -5 A     Ameri~ New_Yo~         17
##  2 06A   Moton Field M~  32.5  -85.7   264    -6 A     Ameri~ Chicago         29
##  3 06C   Schaumburg Re~  42.0  -88.1   801    -6 A     Ameri~ Chicago         19
##  4 06N   Randall Airpo~  41.4  -74.4   523    -5 A     Ameri~ New_Yo~         15
##  5 09J   Jekyll Island~  31.1  -81.4    11    -5 A     Ameri~ New_Yo~         21
##  6 0A9   Elizabethton ~  36.4  -82.2  1593    -5 A     Ameri~ New_Yo~         30
##  7 0G6   Williams Coun~  41.5  -84.5   730    -5 A     Ameri~ New_Yo~         23
##  8 0G7   Finger Lakes ~  42.9  -76.8   492    -5 A     Ameri~ New_Yo~         29
##  9 0P2   Shoestring Av~  39.8  -76.6  1000    -5 U     Ameri~ New_Yo~         28
## 10 0S9   Jefferson Cou~  48.1 -123.    108    -8 A     Ameri~ Los_An~         21
## # ... with 1,448 more rows, and 6 more variables: string_field <lgl>,
## #   nome_parcial <list>, nome_parcial_primeiro <chr>, nome_parcial_final <chr>,
## #   name_split <list>, name_split_1 <chr>
…
texto <- tibble(text="State authorities in the north-western US state of Washington have hit back after President Donald Trump threatened to 'take back'a police-free district controlled by protesters in Seattle. Governor Jay Inslee said Mr Trump should stay out of the state's business, and Seattle's mayor said any invasion of the city would be illegal. Police abandoned a precinct there on Monday after days of clashes. Mr Trump said the area had been overtaken by 'domestic terrorists'. Since police withdrew, demonstrations in the area have been largely peaceful. It has been called Chaz, an abbreviation of Capitol Hill Autonomous Zone. Hundreds of people have been gathering there to demonstrate, hear speeches and attend events.")

texto_palavras <- texto %>% unnest_tokens(palavra, text) 

texto_palavras %>% group_by(palavra) %>%
  tally()

## group_by: one grouping variable (palavra)

## tally: now 83 rows and 2 columns, ungrouped

## # A tibble: 83 x 2
##    palavra          n
##    <chr>        <int>
##  1 a                1
##  2 abandoned        1
##  3 abbreviation     1
##  4 after            2
##  5 an               1
##  6 and              2
##  7 any              1
##  8 area             2
##  9 attend           1
## 10 authorities      1
## # ... with 73 more rows
