Analise de Dados para as Ciencias Sociais: Mapas e Analises Espaciais
…
O sf traz mais poder para os nossos tibbles, permitindo ele entender dados espaciais. Para facilitar, todas as nossas operações com dados espaciais começam com st_ (e não sf…absurdamente). Só temos que indicar para R quais variáveis do tibble original identificam o longitude e latitude das observações, usando a função st_as_sf(). O argumento coords= aceita um vetor com os nomes das duas colunas, longitude e latitude (neste ordem, pois longitude é o eixo X e latitude é o eixo Y - se pensarmos nas coordenadas como pontos cartesianos).

airports_test <- airports %>% st_as_sf(coords=c("lon","lat"))

Como fica o nosso tibble airports_test agora? Abra o tibble para ver. Parece quase igual…e isso é importante - dados espaciais não são muito diferentes de outros dados; eles ainda ficam num tibble. Cada observação tem várias colunas de dados não-espaciais (‘faa’, ‘name’ etc.). Mas agora há uma nova coluna também, geometry. Ela codifica os dados de longitude e latitude num formato mais complexo que facilita operações e visualizações espaciais. Veja que o valor de cada observação da geometry é o longitude-latitude e o tipo de dado espacial é um ponto, <POINT>, (vamos ver alternativas em breve).

airports_test

Simple feature collection with 1458 features and 6 fields
geometry type:  POINT
dimension:      XY
bbox:           xmin: -176.646 ymin: 19.72137 xmax: 174.1136 ymax: 72.27083
CRS:            NA
# A tibble: 1,458 x 7
   faa   name         alt    tz dst   tzone                   geometry
   <chr> <chr>      <dbl> <dbl> <chr> <chr>                    <POINT>
 1 04G   Lansdowne~  1044    -5 A     Americ~     (-80.61958 41.13047)
 2 06A   Moton Fie~   264    -6 A     Americ~     (-85.68003 32.46057)
 3 06C   Schaumbur~   801    -6 A     Americ~     (-88.10124 41.98934)
 4 06N   Randall A~   523    -5 A     Americ~     (-74.39156 41.43191)
 5 09J   Jekyll Is~    11    -5 A     Americ~     (-81.42778 31.07447)
 6 0A9   Elizabeth~  1593    -5 A     Americ~     (-82.17342 36.37122)
 7 0G6   Williams ~   730    -5 A     Americ~     (-84.50678 41.46731)
 8 0G7   Finger La~   492    -5 A     Americ~     (-76.78123 42.88356)
 9 0P2   Shoestrin~  1000    -5 U     Americ~     (-76.64719 39.79482)
10 0S9   Jefferson~   108    -8 A     Americ~     (-122.8106 48.05381)
# ... with 1,448 more rows
…
Por que ‘4326’? Idealmente, devemos confirmar com o fornecedor dos dados o CRS em que eles foram salvos. Aqui, como o longitude e latitude parece que eles estão em graus (entre -180 e 180) é provável que devemos usar o sistema “WGS84” (um sistema de coordenadas geográficas (não projetadas)). Um atalho para especificar o WGS84 é usar o numero 4326 (tecnicamente, o número epsg) no argumento crs. Para outros atalhos para sistemas de coordenados que pode usar com dados salvados em outros sistemas de coordenados, pode aproveitar do site http://epsg.io/.

Abre o airports e vai aparecer uma linha de CRS agora:

airports

Simple feature collection with 1454 features and 6 fields
geometry type:  POINT
dimension:      XY
bbox:           xmin: -176.646 ymin: 19.72137 xmax: -67.01269 ymax: 71.28545
CRS:            EPSG:4326
# A tibble: 1,454 x 7
   faa   name         alt    tz dst   tzone                   geometry
 * <chr> <chr>      <dbl> <dbl> <chr> <chr>                <POINT [°]>
 1 04G   Lansdowne~  1044    -5 A     Americ~     (-80.61958 41.13047)
 2 06A   Moton Fie~   264    -6 A     Americ~     (-85.68003 32.46057)
 3 06C   Schaumbur~   801    -6 A     Americ~     (-88.10124 41.98934)
 4 06N   Randall A~   523    -5 A     Americ~     (-74.39156 41.43191)
 5 09J   Jekyll Is~    11    -5 A     Americ~     (-81.42778 31.07447)
 6 0A9   Elizabeth~  1593    -5 A     Americ~     (-82.17342 36.37122)
 7 0G6   Williams ~   730    -5 A     Americ~     (-84.50678 41.46731)
 8 0G7   Finger La~   492    -5 A     Americ~     (-76.78123 42.88356)
 9 0P2   Shoestrin~  1000    -5 U     Americ~     (-76.64719 39.79482)
10 0S9   Jefferson~   108    -8 A     Americ~     (-122.8106 48.05381)
# ... with 1,444 more rows
…
