Analise de Dados para as Ciencias Sociais: Funções e Repetição
…
Uma lista é um conjunto de objetos diversos organizado verticalmente. Não é um tibble com linhas e colunas, listas só tem ‘elementos’, caixas vazias para guardar qualquer tipo de objeto - valores únicos, tibbles ou outra listas.

Em R, listas são fáceis a construir com list(objeto1, objeto2, ...). Vamos ver como aparece uma lista de uma mistura de objetos:

objeto1 <- flights %>% filter(month==1 & day==1)
objeto2 <- 3.14
objeto3 <- flights %>% filter(month==1 & day==2)
objeto4 <- "teste"

lista_exemplo <- list(objeto1, objeto2, objeto3, objeto4)
lista_exemplo

[[1]]
# A tibble: 842 x 21
    year month   day dep_time sched_dep_time dep_delay arr_time
   <int> <int> <int>    <int>          <int>     <dbl>    <int>
 1  2013     1     1      517            515         2      830
 2  2013     1     1      533            529         4      850
 3  2013     1     1      542            540         2      923
 4  2013     1     1      544            545        -1     1004
 5  2013     1     1      554            600        -6      812
 6  2013     1     1      554            558        -4      740
 7  2013     1     1      555            600        -5      913
 8  2013     1     1      557            600        -3      709
 9  2013     1     1      557            600        -3      838
10  2013     1     1      558            600        -2      753
# ... with 832 more rows, and 14 more variables:
#   sched_arr_time <int>, arr_delay <dbl>, carrier <chr>,
#   flight <int>, tailnum <chr>, origin <chr>, dest <chr>,
#   air_time <dbl>, distance <dbl>, hour <dbl>, minute <dbl>,
#   time_hour <dttm>, dep_delay_dobro <dbl>, velocidade <dbl>

[[2]]
[1] 3.14

[[3]]
# A tibble: 943 x 21
    year month   day dep_time sched_dep_time dep_delay arr_time
   <int> <int> <int>    <int>          <int>     <dbl>    <int>
 1  2013     1     2       42           2359        43      518
 2  2013     1     2      126           2250       156      233
 3  2013     1     2      458            500        -2      703
 4  2013     1     2      512            515        -3      809
 5  2013     1     2      535            540        -5      831
 6  2013     1     2      536            529         7      840
 7  2013     1     2      539            545        -6      959
 8  2013     1     2      554            600        -6      845
 9  2013     1     2      554            600        -6      841
10  2013     1     2      554            600        -6      909
# ... with 933 more rows, and 14 more variables:
#   sched_arr_time <int>, arr_delay <dbl>, carrier <chr>,
#   flight <int>, tailnum <chr>, origin <chr>, dest <chr>,
#   air_time <dbl>, distance <dbl>, hour <dbl>, minute <dbl>,
#   time_hour <dttm>, dep_delay_dobro <dbl>, velocidade <dbl>
…
